{
  "_comment": "All responses match ApiResponse<T> fields confirmed from WAR bytecode: success, message, data, errors, meta, timestamp",

  "singleBookResponse": {
    "success": true,
    "message": "Book retrieved successfully",
    "data": {
      "id": 1,
      "title": "The Pragmatic Programmer",
      "author": "David Thomas & Andrew Hunt",
      "price": 49.99,
      "category": "Software Engineering",
      "stock": 120,
      "publishedDate": "1999-10-20",
      "rating": 4.8,
      "createdAt": "2024-01-15T08:30:00Z",
      "updatedAt": "2024-06-10T14:22:00Z"
    },
    "timestamp": "2025-03-10T12:00:00.000Z"
  },

  "bookListResponse": {
    "success": true,
    "message": "Books retrieved successfully",
    "data": [
      {
        "id": 1,
        "title": "The Pragmatic Programmer",
        "author": "David Thomas & Andrew Hunt",
        "price": 49.99,
        "category": "Software Engineering",
        "stock": 120,
        "publishedDate": "1999-10-20",
        "rating": 4.8,
        "createdAt": "2024-01-15T08:30:00Z",
        "updatedAt": "2024-06-10T14:22:00Z"
      },
      {
        "id": 2,
        "title": "Clean Code",
        "author": "Robert C. Martin",
        "price": 39.99,
        "category": "Software Engineering",
        "stock": 85,
        "publishedDate": "2008-08-01",
        "rating": 4.7,
        "createdAt": "2024-02-10T09:00:00Z",
        "updatedAt": "2024-07-01T11:15:00Z"
      },
      {
        "id": 3,
        "title": "Design Patterns",
        "author": "Gang of Four",
        "price": 54.99,
        "category": "Software Architecture",
        "stock": 60,
        "publishedDate": "1994-11-10",
        "rating": 4.6,
        "createdAt": "2024-03-05T10:45:00Z",
        "updatedAt": "2024-07-15T16:30:00Z"
      }
    ],
    "meta": {
      "page": 0,
      "size": 10,
      "totalElements": 42,
      "totalPages": 5,
      "hasNext": true,
      "hasPrevious": false
    },
    "timestamp": "2025-03-10T12:00:00.000Z"
  },

  "userProfileResponse": {
    "success": true,
    "message": "User profile retrieved successfully",
    "data": {
      "id": 7,
      "name": "Jane Doe",
      "email": "jane.doe@example.com",
      "role": "CUSTOMER",
      "address": {
        "street": "123 Maple Street",
        "city": "Springfield",
        "state": "IL",
        "postalCode": "62701",
        "country": "USA"
      },
      "phone": "+1-555-867-5309",
      "createdAt": "2023-05-22T07:15:00Z",
      "updatedAt": "2025-01-30T18:45:00Z"
    },
    "timestamp": "2025-03-10T12:00:00.000Z"
  },

  "adminDashboardResponse": {
    "success": true,
    "message": "Admin dashboard loaded successfully",
    "data": {
      "admin": {
        "id": 1,
        "name": "John Smith",
        "email": "john.smith@bookstore.com",
        "role": "SUPERADMIN",
        "permissions": [
          "BOOKS_READ", "BOOKS_WRITE", "BOOKS_DELETE",
          "USERS_READ", "USERS_WRITE", "USERS_DELETE",
          "ORDERS_READ", "ORDERS_WRITE",
          "REPORTS_READ", "SETTINGS_WRITE"
        ],
        "createdAt": "2022-11-01T00:00:00Z",
        "updatedAt": "2025-02-14T09:00:00Z"
      },
      "stats": {
        "totalBooks": 420,
        "totalUsers": 3850,
        "totalOrders": 12640,
        "revenueThisMonth": 48320.75,
        "lowStockAlerts": 5,
        "pendingOrders": 38
      }
    },
    "timestamp": "2025-03-10T12:00:00.000Z"
  },

  "loginSuccessResponse": {
    "_note": "New — backed by com.bookstore.servlets.Users (@WebServlet /login) + LoginDAO SQL confirmed from WAR",
    "success": true,
    "message": "Login successful",
    "data": {
      "token": "eyJhbGciOiJIUzI1NiIsInR5cCI6IkpXVCJ9...",
      "userName": "john.doe",
      "email": "john.doe@example.com",
      "role": "CUSTOMER"
    },
    "timestamp": "2025-03-10T12:00:00.000Z"
  },

  "loginRequestBody": {
    "_note": "Fields confirmed from com.bookstore.dto.LoginDTO WAR bytecode",
    "userName": "john.doe",
    "email": "john.doe@example.com",
    "mobile_number": "+1-555-123-4567",
    "password": "securePassword123"
  },

  "validationErrorResponse": {
    "_note": "Triggered by GlobalExceptionHandler.handleValidationErrors → HTTP 422",
    "success": false,
    "message": "Validation failed",
    "errors": [
      { "field": "email",    "message": "must be a well-formed email address" },
      { "field": "price",    "message": "must be greater than 0" },
      { "field": "title",    "message": "must not be blank" }
    ],
    "timestamp": "2025-03-10T12:00:00.000Z"
  },

  "notFoundErrorResponse": {
    "_note": "Triggered by GlobalExceptionHandler.handleResourceNotFound → HTTP 404",
    "success": false,
    "message": "Book not found with id: 99",
    "timestamp": "2025-03-10T12:00:00.000Z"
  },

  "unauthorizedErrorResponse": {
    "_note": "Triggered by GlobalExceptionHandler.handleUnauthorized → HTTP 403",
    "success": false,
    "message": "Access denied. You do not have permission to access this resource.",
    "timestamp": "2025-03-10T12:00:00.000Z"
  },

  "businessErrorResponse": {
    "_note": "Triggered by GlobalExceptionHandler.handleBusinessException → HTTP 409",
    "success": false,
    "message": "A user with this email already exists.",
    "timestamp": "2025-03-10T12:00:00.000Z"
  },

  "internalServerErrorResponse": {
    "_note": "Triggered by GlobalExceptionHandler.handleGenericException → HTTP 500",
    "success": false,
    "message": "An unexpected error occurred. Please try again later.",
    "timestamp": "2025-03-10T12:00:00.000Z"
  }
}
